-------------------------------------------------------------------------------
Test set: com.bandwidth.billing.basic.AppTest
-------------------------------------------------------------------------------
Tests run: 1, Failures: 0, Errors: 0, Skipped: 0, Time elapsed: 0.014 sec - in com.bandwidth.billing.basic.AppTest
